{
  "kind": "collectionType",
  "collectionName": "packages",
  "info": {
    "name": "package"
  },
  "options": {
    "increments": true,
    "timestamps": true,
    "draftAndPublish": true
  },
  "attributes": {
    "package_name": {
      "type": "string"
    },
    "customers": {
      "via": "packages",
      "collection": "customers",
      "dominant": true
    },
    "symptoms": {
      "via": "package",
      "collection": "symptom"
    },
    "billings": {
      "via": "package",
      "collection": "billings"
    }
  }
}
