{
  "routes": [
    {
      "method": "GET",
      "path": "/ctb-areas",
      "handler": "ctb-area.find",
      "config": {
        "policies": []
      }
    },
    {
      "method": "GET",
      "path": "/ctb-areas/count",
      "handler": "ctb-area.count",
      "config": {
        "policies": []
      }
    },
    {
      "method": "GET",
      "path": "/ctb-areas/:id",
      "handler": "ctb-area.findOne",
      "config": {
        "policies": []
      }
    },
    {
      "method": "POST",
      "path": "/ctb-areas",
      "handler": "ctb-area.create",
      "config": {
        "policies": []
      }
    },
    {
      "method": "PUT",
      "path": "/ctb-areas/:id",
      "handler": "ctb-area.update",
      "config": {
        "policies": []
      }
    },
    {
      "method": "DELETE",
      "path": "/ctb-areas/:id",
      "handler": "ctb-area.delete",
      "config": {
        "policies": []
      }
    }
  ]
}
